%YAML 1.1
%TAG !u! tag:unity3d.com,2011:
--- !u!114 &11400000
MonoBehaviour:
  m_ObjectHideFlags: 0
  m_CorrespondingSourceObject: {fileID: 0}
  m_PrefabInstance: {fileID: 0}
  m_PrefabAsset: {fileID: 0}
  m_GameObject: {fileID: 0}
  m_Enabled: 1
  m_EditorHideFlags: 0
  m_Script: {fileID: 11500000, guid: 492d9b8f70a42084197474e1b81b1553, type: 3}
  m_Name: CrewQuartersLamp
  m_EditorClassIdentifier: 
  touchedAnimRepeat: 1
  fps: 12
  idle:
  - {fileID: 21300000, guid: fbb31841bc448ff4a89db95122149c47, type: 3}
  touched:
  - {fileID: 21300000, guid: 3d3c2e85803306e48b72a0e368fbbe28, type: 3}
  - {fileID: 21300000, guid: d1fff645f6969a449a8afceb9d417eda, type: 3}
  - {fileID: 21300000, guid: da5ef25b3fde1f444a6ef539073563c7, type: 3}
  - {fileID: 21300000, guid: a7b606682ad662049bd29dac2b6063a0, type: 3}
  - {fileID: 21300000, guid: fb5071bec73f80141969e4f8f4399adf, type: 3}
  - {fileID: 21300000, guid: 7047790f594104a469857de9429048c0, type: 3}
  - {fileID: 21300000, guid: df8ff696b19788d4a8b9a6c45b5913a3, type: 3}
  - {fileID: 21300000, guid: 820e4f7cdf642d94b962f65c61049d5f, type: 3}
  - {fileID: 21300000, guid: 8c2b5daa6588d9e45b06a4f9b301bd91, type: 3}
  - {fileID: 21300000, guid: 6669b6282f26195448c1d9e8c7eceec8, type: 3}
  - {fileID: 21300000, guid: ef68f5c7ba6e3314489e5d1c7de59225, type: 3}
  - {fileID: 21300000, guid: b5670c7f8478270439978c37bb390e37, type: 3}
  - {fileID: 21300000, guid: c443298f48130864bab01922025aff99, type: 3}
  - {fileID: 21300000, guid: ba40f2a65805f2d40acf2e7a1ab6ccb5, type: 3}
  - {fileID: 21300000, guid: c7bcbac9e2028e049aa6562262319d97, type: 3}
  - {fileID: 21300000, guid: a07c0c99aa24a504eb0bcde77603c924, type: 3}
  - {fileID: 21300000, guid: 02bb6537a230368499ba704f56174286, type: 3}
  - {fileID: 21300000, guid: eca3c3501a510f64e8ab9bbdabafd561, type: 3}
  - {fileID: 21300000, guid: 039879a52cbca9a47b3b855c1c5b0e8e, type: 3}
  - {fileID: 21300000, guid: 8e6b2629c7eeb954084e06a0e8d29c66, type: 3}
  - {fileID: 21300000, guid: 47a8853f08a024444baa8f61793c1c2d, type: 3}
  - {fileID: 21300000, guid: 16d2fe1cb5c313f468757eaf52fdad17, type: 3}
  - {fileID: 21300000, guid: b248e766ee3309b4c93d7431c1e810e1, type: 3}
  - {fileID: 21300000, guid: 619af0268adb4d44eaf7bb44755f7282, type: 3}
  - {fileID: 21300000, guid: c50904890377b7f46ad3dc33d89f4b15, type: 3}
  - {fileID: 21300000, guid: d468cb82161ca9d4bab9c40acf28e052, type: 3}
  - {fileID: 21300000, guid: 9c0ece877bb077b45bb8ea0010d1cc74, type: 3}
  - {fileID: 21300000, guid: 55cb36f7bbefbd64dbe12c4b66b352e1, type: 3}
  - {fileID: 21300000, guid: 5de2cef063a80dc45b79280331d980d7, type: 3}
  - {fileID: 21300000, guid: bf89d063912da684bbcf3680bf8af504, type: 3}
  - {fileID: 21300000, guid: caa19ffb4fbfefd418428fd38e875133, type: 3}
  - {fileID: 21300000, guid: 2da27ce498eaaac44806223d23a81272, type: 3}
  - {fileID: 21300000, guid: 07904cdf62d02b14e9381fe435d58998, type: 3}
  - {fileID: 21300000, guid: 1949b5c22e639e04a8ad3c062ce6053b, type: 3}
  - {fileID: 21300000, guid: e9158c60ee95308468088dc5cdca88b1, type: 3}
  - {fileID: 21300000, guid: ec7b7c40587fb4545a466976a15b4503, type: 3}
  - {fileID: 21300000, guid: f72f0b83d0f10ef479438d775df4c5ad, type: 3}
  - {fileID: 21300000, guid: 945b0e52e817bc1468bc2c8b3026a559, type: 3}
  - {fileID: 21300000, guid: da7455fa531afa84f8a8570fe0c4c142, type: 3}
  - {fileID: 21300000, guid: 7a5f4e072e862bb41ad12f2ff8244a48, type: 3}
  - {fileID: 21300000, guid: 60c3f336491b31349a6e900e170669d7, type: 3}
  - {fileID: 21300000, guid: 8faecadcffa2bcf40b30c5296713a4c5, type: 3}
  - {fileID: 21300000, guid: 1150bac034298b644b07acd67526c5f5, type: 3}
  - {fileID: 21300000, guid: ff8a3626b13d77d46956c116fec88e1b, type: 3}
  - {fileID: 21300000, guid: 2bd636f119f06d64bb2c0dc32e076d7f, type: 3}
  - {fileID: 21300000, guid: 8da791a9986cc1e489aa488fb2e9ae91, type: 3}
  - {fileID: 21300000, guid: b2aa0c70a06848349889e679c3e05059, type: 3}
  - {fileID: 21300000, guid: fbb31841bc448ff4a89db95122149c47, type: 3}
