%YAML 1.1
%TAG !u! tag:unity3d.com,2011:
--- !u!114 &11400000
MonoBehaviour:
  m_ObjectHideFlags: 0
  m_CorrespondingSourceObject: {fileID: 0}
  m_PrefabInstance: {fileID: 0}
  m_PrefabAsset: {fileID: 0}
  m_GameObject: {fileID: 0}
  m_Enabled: 1
  m_EditorHideFlags: 0
  m_Script: {fileID: 11500000, guid: 492d9b8f70a42084197474e1b81b1553, type: 3}
  m_Name: Doors
  m_EditorClassIdentifier: 
  touchedAnimRepeat: 1
  fps: 2
  idle:
  - {fileID: 21300000, guid: 734904e8a0dde7644a763430c189a451, type: 3}
  - {fileID: 21300000, guid: 734904e8a0dde7644a763430c189a451, type: 3}
  - {fileID: 21300000, guid: c0046b35654c75a4b99c760cc6f3d7dd, type: 3}
  - {fileID: 21300000, guid: c0046b35654c75a4b99c760cc6f3d7dd, type: 3}
  touched:
  - {fileID: 21300000, guid: fec59ed9c03ec37498a97ee9d2df2c87, type: 3}
  - {fileID: 21300000, guid: 4a9d3479ba2f767419c105b0a5fda237, type: 3}
  - {fileID: 21300000, guid: fcafe5dfdb027084db96e335f41c945e, type: 3}
  - {fileID: 21300000, guid: 845eea23fa536ae4b9ec45f3cbe48dec, type: 3}
  - {fileID: 21300000, guid: a7cf7d7b060c01448b26ac150eb00b3b, type: 3}
  - {fileID: 21300000, guid: c0046b35654c75a4b99c760cc6f3d7dd, type: 3}
  - {fileID: 21300000, guid: dc325dc16daea464aafa0cc23f2d107d, type: 3}
