%YAML 1.1
%TAG !u! tag:unity3d.com,2011:
--- !u!114 &11400000
MonoBehaviour:
  m_ObjectHideFlags: 0
  m_CorrespondingSourceObject: {fileID: 0}
  m_PrefabInstance: {fileID: 0}
  m_PrefabAsset: {fileID: 0}
  m_GameObject: {fileID: 0}
  m_Enabled: 1
  m_EditorHideFlags: 0
  m_Script: {fileID: 11500000, guid: 492d9b8f70a42084197474e1b81b1553, type: 3}
  m_Name: Lab
  m_EditorClassIdentifier: 
  touchedAnimRepeat: 1
  fps: 12
  idle:
  - {fileID: 21300000, guid: 36d244b5051166349b79f74797ae113d, type: 3}
  touched:
  - {fileID: 21300000, guid: 36d244b5051166349b79f74797ae113d, type: 3}
  - {fileID: 21300000, guid: 3c59f4574998b6542b5367c2b39d841c, type: 3}
  - {fileID: 21300000, guid: 62d0784a38f5f93448343b6c82a06c8f, type: 3}
  - {fileID: 21300000, guid: 1722e8f5e84dcad4789d77d21a6696d2, type: 3}
  - {fileID: 21300000, guid: 47aa2a16b337b94498779658943930a6, type: 3}
  - {fileID: 21300000, guid: d44778dda90056542a4c21ccc5ec2742, type: 3}
  - {fileID: 21300000, guid: 8e64e82f82a4c214e826eca2eb7aa3f4, type: 3}
  - {fileID: 21300000, guid: 66d40c5a22eb464498e25657f444a609, type: 3}
  - {fileID: 21300000, guid: 8655baeed6dad724094969fffacc846b, type: 3}
  - {fileID: 21300000, guid: cbeb0dfb4aac49a4897cfea15f8969a9, type: 3}
  - {fileID: 21300000, guid: ea9a31c0af0dc6341b5525e846b48e60, type: 3}
  - {fileID: 21300000, guid: 15bbf49453232ee4290e4878de0f20aa, type: 3}
  - {fileID: 21300000, guid: 88c8d40c78bebf54a9204a20fe961f24, type: 3}
  - {fileID: 21300000, guid: 0c7fe9ed5224e5449b80b4e74d37f955, type: 3}
  - {fileID: 21300000, guid: 5f8a97d03db987046951dcb7a0a257f4, type: 3}
  - {fileID: 21300000, guid: c8000f6908a6bf148bf46469d2b7a846, type: 3}
  - {fileID: 21300000, guid: 6d38a6c550b63c44eab5c9725457617a, type: 3}
  - {fileID: 21300000, guid: f9486d0e42c00014d8ffcc0aaba153c7, type: 3}
  - {fileID: 21300000, guid: a2c77e813215ece43be65f64846f1b35, type: 3}
  - {fileID: 21300000, guid: 0ece1ed417307c3439eb05a181ad050a, type: 3}
  - {fileID: 21300000, guid: 3af893277eff54b449e51a2f44ddd43c, type: 3}
  - {fileID: 21300000, guid: 4d20e35fd59851f4aa562fc9d1efddd2, type: 3}
  - {fileID: 21300000, guid: 8ea26625f8c5e8544a7f2a2e89cdb55e, type: 3}
  - {fileID: 21300000, guid: c9ad330637bc6d94e890ebc351cff1f3, type: 3}
  - {fileID: 21300000, guid: 70e56490a8d1393439417ecdc0ab8019, type: 3}
  - {fileID: 21300000, guid: 26d5f1520ea3ac7429596f47cd4267e5, type: 3}
  - {fileID: 21300000, guid: 082aec9d8969aea4dbb0756a110023c0, type: 3}
  - {fileID: 21300000, guid: 91aac68a83a46ec4fbd33d5c49b78e6d, type: 3}
  - {fileID: 21300000, guid: a1f35dcb9c5a3e44ab00c5b10ab52f3b, type: 3}
  - {fileID: 21300000, guid: 8416bfa367ec2a24fbd7c46d899eb25c, type: 3}
  - {fileID: 21300000, guid: 5a86e842ad01a1a40a13372a231f1dc9, type: 3}
  - {fileID: 21300000, guid: 6c70d8cf45512ae4f951eee9aa42771a, type: 3}
  - {fileID: 21300000, guid: 3b9df9338946e01498efbf27d7daacfa, type: 3}
  - {fileID: 21300000, guid: 085f57de343f530468fc9d77f8233a6e, type: 3}
  - {fileID: 21300000, guid: 237a728ffa8993c44ae12ae00e709310, type: 3}
  - {fileID: 21300000, guid: 63ee8a88d948f8d44a06403cb6533c7f, type: 3}
  - {fileID: 21300000, guid: 328b7a7f76aa26046953af9f66a4b4a4, type: 3}
  - {fileID: 21300000, guid: 85609e834d5c61846941ee6438527457, type: 3}
  - {fileID: 21300000, guid: 2fa123d18aac8ce45a300a9e4ebeea06, type: 3}
  - {fileID: 21300000, guid: 313a7456a32c85d41bfa108416576dbc, type: 3}
  - {fileID: 21300000, guid: 454515c9dca156e4cafa1e79d351cadb, type: 3}
  - {fileID: 21300000, guid: a13dec6f637fb5e49b8ec64dcabb7af3, type: 3}
  - {fileID: 21300000, guid: e2a5f5d696f59164dafe39fa896ad6d9, type: 3}
  - {fileID: 21300000, guid: 156958e0ff7a80a4e8ded51b41813266, type: 3}
  - {fileID: 21300000, guid: ec3fd75535955c245acf1ab4b60182c2, type: 3}
  - {fileID: 21300000, guid: cff7b33f2af0ddd4e98b86488e757540, type: 3}
  - {fileID: 21300000, guid: b394d116508214a40a881e824b04156c, type: 3}
  - {fileID: 21300000, guid: 77b46a91ae3a47140bebe77f760af133, type: 3}
