%YAML 1.1
%TAG !u! tag:unity3d.com,2011:
--- !u!78 &1
TagManager:
  serializedVersion: 2
  tags:
  - GameManager
  layers:
  - Default
  - TransparentFX
  - Ignore Raycast
  - 
  - Water
  - UI
  - 
  - 
  - 
  - 
  - 
  - 
  - 
  - 
  - 
  - 
  - 
  - 
  - 
  - 
  - 
  - 
  - 
  - 
  - 
  - 
  - 
  - 
  - 
  - 
  - 
  - 
  m_SortingLayers:
  - name: Background
    uniqueID: 3579353347
    locked: 0
  - name: Ship
    uniqueID: 3737744075
    locked: 0
  - name: Rooms
    uniqueID: 1784561961
    locked: 0
  - name: RoomBorder
    uniqueID: 2722294281
    locked: 0
  - name: Tasks
    uniqueID: 2388053639
    locked: 0
  - name: TaskBorder
    uniqueID: 491843127
    locked: 0
  - name: Foreground
    uniqueID: 3153041647
    locked: 0
  - name: Default
    uniqueID: 0
    locked: 0
  - name: UI
    uniqueID: 893942277
    locked: 0
